<svg version="1.1" id="Laag_1" xmlns="http://www.w3.org/2000/svg" xmlns:xlink="http://www.w3.org/1999/xlink" x="0px" y="0px"
	 viewBox="0 0 500 500" style="enable-background:new 0 0 500 500;" xml:space="preserve">
<style type="text/css">
	.st0{fill:#E62A49;}
	.st1{fill:#FFFFFF;}
</style>
<g>
	<path class="st0" d="M245.3,325.6H54.5c-5.7,0-10.4-4.7-10.4-10.4s4.7-10.4,10.4-10.4h190.8c5.7,0,10.4,4.7,10.4,10.4
		S251.1,325.6,245.3,325.6z"/>
</g>
<g>
	<path class="st0" d="M199.8,276.5h-182c-5.7,0-10.4-4.7-10.4-10.4c0-5.7,4.7-10.4,10.4-10.4h182c5.7,0,10.4,4.7,10.4,10.4
		C210.2,271.8,205.5,276.5,199.8,276.5z"/>
</g>
<g>
	<path class="st0" d="M179.6,227.4H92.2c-5.7,0-10.4-4.7-10.4-10.4s4.7-10.4,10.4-10.4h87.4c5.7,0,10.4,4.7,10.4,10.4
		S185.4,227.4,179.6,227.4z"/>
</g>
<g>
	<rect x="121.2" y="233" class="st1" width="20.8" height="17"/>
	<g>
		<rect x="121.2" y="282.1" class="st1" width="20.8" height="16.5"/>
		<path class="st1" d="M492,154.4c0-0.3-0.1-0.7-0.1-1c0-0.3,0-0.6-0.1-0.9c0,0,0-0.1,0-0.1c-0.1-0.3-0.2-0.6-0.3-0.9
			c0-0.1-0.1-0.2-0.1-0.3c-0.1-0.2-0.1-0.4-0.2-0.5c0,0,0,0,0,0c-0.2-0.6-0.5-1.1-0.9-1.6c0-0.1-0.1-0.1-0.1-0.2c0,0,0,0,0,0
			c-0.2-0.3-0.4-0.5-0.6-0.8c-0.2-0.3-0.4-0.5-0.6-0.8c-0.3-0.3-0.6-0.5-0.8-0.7c-0.2-0.2-0.5-0.4-0.7-0.6c0,0,0,0,0,0
			c-0.1,0-0.1-0.1-0.2-0.1c-0.2-0.1-0.4-0.2-0.6-0.3c-0.3-0.2-0.6-0.4-1-0.5c0,0,0,0-0.1,0c0,0,0,0,0,0L312.1,74.5
			c-0.2-0.1-0.4-0.1-0.7-0.2c-0.4-0.1-0.8-0.3-1.2-0.4c-0.3-0.1-0.7-0.1-1-0.1c-0.3,0-0.7-0.1-1-0.1c-0.4,0-0.7,0.1-1.1,0.1
			c-0.3,0-0.6,0-0.9,0.1c-0.4,0.1-0.9,0.2-1.3,0.4c-0.2,0.1-0.4,0.1-0.6,0.2l-176.6,72.1c0,0,0,0,0,0c0,0-0.1,0-0.1,0
			c-0.1,0-0.1,0.1-0.2,0.1c-0.4,0.2-0.8,0.4-1.1,0.6c-0.1,0.1-0.3,0.1-0.4,0.2c0,0,0,0,0,0c-0.5,0.3-0.9,0.7-1.3,1
			c-0.1,0.1-0.2,0.2-0.3,0.2c-0.1,0.1-0.2,0.2-0.3,0.3c-0.2,0.2-0.3,0.4-0.5,0.6c-0.2,0.2-0.3,0.4-0.5,0.6c0,0,0,0,0,0
			c-0.1,0.1-0.2,0.3-0.2,0.5c-0.1,0.1-0.1,0.2-0.2,0.3c-0.2,0.3-0.4,0.7-0.5,1.1c0,0,0,0,0,0.1c-0.1,0.2-0.1,0.4-0.2,0.6
			c-0.1,0.4-0.3,0.7-0.4,1.1c0,0,0,0.1,0,0.1c-0.1,0.3-0.1,0.6-0.1,0.9c0,0.3-0.1,0.7-0.1,1c0,0,0,0,0,0v0.2c0,0,0,0,0,0v44.4H142
			v-29.2l153.3,61.8v166.9L142,340.1v-9.4h-20.8v16.5c0,0,0,0.1,0,0.1c0,0.4,0.1,0.8,0.1,1.3c0,0.3,0,0.5,0.1,0.8
			c0.1,0.3,0.2,0.6,0.3,1c0.1,0.3,0.2,0.7,0.3,1c0.1,0.3,0.3,0.5,0.4,0.8c0.2,0.3,0.3,0.7,0.5,0.9c0.2,0.3,0.4,0.6,0.7,0.8
			c0.2,0.2,0.4,0.5,0.6,0.7c0.2,0.2,0.5,0.4,0.8,0.6c0.3,0.2,0.5,0.4,0.8,0.6c0.2,0.1,0.5,0.3,0.7,0.4c0.4,0.2,0.7,0.4,1.1,0.6
			c0,0,0.1,0,0.1,0.1l174.1,68.4c0.1,0,0.2,0.1,0.3,0.1c0.3,0.1,0.7,0.2,1.1,0.3c0.1,0,0.3,0.1,0.4,0.1c0.1,0,0.2,0,0.3,0
			c0.6,0.1,1.1,0.2,1.7,0.2c0,0,0,0,0,0c0,0,0,0,0,0c0,0,0,0,0,0c0,0,0,0,0,0c0.6,0,1.1-0.1,1.7-0.2c0.1,0,0.2,0,0.3,0
			c0.2,0,0.3-0.1,0.4-0.1c0.4-0.1,0.7-0.2,1-0.3c0.1,0,0.2,0,0.3-0.1l175.9-68.4c0,0,0.1,0,0.1-0.1c0.4-0.2,0.8-0.4,1.1-0.6
			c0.2-0.1,0.5-0.2,0.7-0.4c0.3-0.2,0.5-0.4,0.8-0.6c0.3-0.2,0.5-0.4,0.8-0.6c0.2-0.2,0.4-0.5,0.6-0.7c0.2-0.3,0.5-0.5,0.7-0.8
			c0.2-0.3,0.4-0.6,0.5-0.9c0.1-0.3,0.3-0.5,0.4-0.8c0.1-0.3,0.2-0.6,0.3-1c0.1-0.3,0.2-0.6,0.3-1c0.1-0.3,0.1-0.6,0.1-0.8
			c0.1-0.4,0.1-0.8,0.1-1.2c0,0,0-0.1,0-0.1V154.6c0,0,0,0,0,0L492,154.4C492,154.4,492,154.4,492,154.4z M308.2,95.4L454,154.5
			l-52.4,21.4l-145-59.4L308.2,95.4z M305.7,215.2l-146.4-59l54.3-22.2l145.5,59.3L305.7,215.2z M471.2,340.1l-155.1,60.3v-167
			l56.8-23.2l0.2,73.6c0,4.1,4.1,6.9,7.9,5.4l30.7-12c2.2-0.9,3.7-3,3.7-5.4v-79l55.8-22.8V340.1z"/>
	</g>
</g>
</svg>
