<svg xmlns="http://www.w3.org/2000/svg" xmlns:xlink="http://www.w3.org/1999/xlink" width="44.274" height="41.171" viewBox="0 0 44.274 41.171">
  <defs>
    <clipPath id="clip-path">
      <path id="Path_4" data-name="Path 4" d="M358.224-1212.387l.009.005a1.353,1.353,0,0,1,.8,1.237,1.353,1.353,0,0,1-.822,1.245v0h0a1.347,1.347,0,0,1-.528.107,1.363,1.363,0,0,1-.3-.034.949.949,0,0,0-.461.815.946.946,0,0,0,.113.45,1.087,1.087,0,0,1,.6.974,1.087,1.087,0,0,1-1.087,1.087,1.085,1.085,0,0,1-.869-.433l-.069,0a.951.951,0,0,0-.951.943,1.252,1.252,0,0,1,.75,1.147,1.252,1.252,0,0,1-1.252,1.252,1.249,1.249,0,0,1-.432-.077,10.431,10.431,0,0,1-2.49,8.211,13.019,13.019,0,0,1,2.629,5.83,15.141,15.141,0,0,1-13.255,17.618,19.969,19.969,0,0,1-10.341-1.3v-9.888a.487.487,0,0,0,.278-.086,34.348,34.348,0,0,1,6.633-3.327l.126-.05a30.533,30.533,0,0,1,7.818-2.091.49.49,0,0,0,.435-.54.49.49,0,0,0-.539-.434,31.483,31.483,0,0,0-8.073,2.154l-.26.1-.261.1a35.545,35.545,0,0,0-6.156,3.085v-.1a4.309,4.309,0,0,1-.312.315.376.376,0,0,0-.031.028,4.266,4.266,0,0,1-2.852,1.088,4.283,4.283,0,0,1-4.283-4.283,4.267,4.267,0,0,1,.384-1.774l.028-.06h0l.054-.1q.072-.142.154-.278a9.036,9.036,0,0,1,6.862-4.466v-14.957a15.609,15.609,0,0,1,7.913-3.837,15.264,15.264,0,0,1,10.194,1.613.036.036,0,0,1,.015-.022,14.221,14.221,0,0,1,4.517-1.741C354.528-1213.053,356.894-1213.161,358.224-1212.387Zm-18.163,4.893c-.469.141-1.688.8-1.688,3.141a5.919,5.919,0,0,0,.7,3.328q.844,1.031,2.813.375c1.969-.656,2.3-1.219,2.438-1.547a5.206,5.206,0,0,0-.516-2.625,5.2,5.2,0,0,0-1.594-2.2A2.438,2.438,0,0,0,340.061-1207.495Zm-6.144,3.249a1.4,1.4,0,0,0-.987,1.691,1.4,1.4,0,0,0,1.843.661,1.4,1.4,0,0,0,.987-1.691A1.4,1.4,0,0,0,333.918-1204.245Zm13.533-3.333a1.4,1.4,0,0,0-1.506,1.252,1.4,1.4,0,0,0,1.506,1.252,1.4,1.4,0,0,0,1.506-1.252A1.4,1.4,0,0,0,347.45-1207.579Z" transform="translate(-322.794 1213)" fill="none" clip-rule="evenodd"/>
    </clipPath>
    <clipPath id="clip-path-2">
      <path id="Path_3" data-name="Path 3" d="M0-1824.2H190.151V-2047H0Z" transform="translate(0 2047)" fill="none"/>
    </clipPath>
    <clipPath id="clip-path-3">
      <path id="Path_7" data-name="Path 7" d="M255.732-1116.255a4.283,4.283,0,0,1,4.283,4.283,4.28,4.28,0,0,1-1.99,3.618l0,0a9.876,9.876,0,0,1-4.082,1.633l-.05.007v6.938a9.033,9.033,0,0,1-4.9-8.034,9.031,9.031,0,0,1,4.517-7.826q.136-.082.278-.154l.1-.054v0A4.267,4.267,0,0,1,255.732-1116.255Z" transform="translate(-249 1116.255)" fill="none" clip-rule="evenodd"/>
    </clipPath>
  </defs>
  <g id="Group_16" data-name="Group 16" transform="translate(476.326 951.24)">
    <g id="Group_2" data-name="Group 2" transform="translate(-468.294 -951.24)" clip-path="url(#clip-path)">
      <g id="Group_1" data-name="Group 1" transform="translate(-35.134 -90.776)" clip-path="url(#clip-path-2)">
        <path id="Path_2" data-name="Path 2" d="M317.794-1218h37.331v42.26H317.794Z" transform="translate(-283.204 1308.232)" fill="#22caa7"/>
      </g>
    </g>
    <g id="Group_4" data-name="Group 4" transform="translate(-476.326 -940.71)" clip-path="url(#clip-path-3)">
      <g id="Group_3" data-name="Group 3" transform="translate(-27.102 -101.306)" clip-path="url(#clip-path-2)">
        <path id="Path_5" data-name="Path 5" d="M244-1121.255h12.1v17.564H244Z" transform="translate(-217.442 1222.017)" fill="#22caa7"/>
      </g>
    </g>
  </g>
</svg>
