<?xml version="1.0" encoding="UTF-8"?>
<!-- Generator: Adobe Illustrator 23.0.4, SVG Export Plug-In . SVG Version: 6.00 Build 0)  -->
<svg version="1.1" id="Laag_1" xmlns="http://www.w3.org/2000/svg" xmlns:xlink="http://www.w3.org/1999/xlink" x="0px" y="0px" viewBox="0 0 314.8 62" style="enable-background:new 0 0 314.8 62;" xml:space="preserve">
<style type="text/css">
	.st0{fill:#E62A49;}
	.st1{fill:#121124;}
</style>
<path class="st0" d="M14.2,33.4V27c0-12.8,0-12.8,12.7-12.8h6.4l0-12.9H20.5C1.4,1.4,1.4,16.9,1.4,20.5v12.9L7.8,27L14.2,33.4z"/>
<path class="st0" d="M52.3,28.2v6.3c0,12.8-0.1,12.8-12.7,12.8h-6.4v12.9H46c19.1,0,19.1-15.6,19.1-19.2V28.2l-6.4,6.4L52.3,28.2z"/>
<path class="st1" d="M31.9,47.3l-17.7,0c0-3.3-0.1-11.8-0.1-11.8L7.8,29l-6.5,6.4v3.4c0,3.9-0.1,17-0.1,21.6H32L31.9,47.3z"/>
<path class="st1" d="M34.9,14.3l17.3,0c0,3.3,0.1,12.2,0.1,12.2l6.3,6.5l6.5-6.4v-3.5c0-3.9,0-17,0-21.6H34.9L34.9,14.3z"/>
<path class="st1" d="M83.4,31.2c0-8.7,6.1-14.7,14.7-14.7c8.7,0,14.7,5.7,14.7,14.7c0,9-5.8,14.7-14.7,14.7  C89.1,45.9,83.4,39.9,83.4,31.2 M106.8,31.2c0-5.6-3.4-9.2-8.7-9.2c-5.3,0-8.7,3.6-8.7,9.2c0,5.6,3.4,9.2,8.7,9.2  C103.4,40.3,106.8,36.8,106.8,31.2"/>
<polygon class="st1" points="118.1,17.2 124.1,17.2 124.1,29.6 134.2,17.2 141.4,17.2 130.2,30.5 142.5,45.2 134.7,45.2 124.1,32.1   124.1,45.2 118.1,45.2 "/>
<polygon class="st1" points="146.7,17.2 164,17.2 164,22.8 152.7,22.8 152.7,28.2 163.6,28.2 163.6,33.8 152.7,33.8 152.7,39.6   164.3,39.6 164.3,45.2 146.7,45.2 "/>
<path class="st1" d="M169.8,31.2c0-8.7,6-14.7,14.5-14.7c8.4,0,14.4,5.8,14.4,14.7c0,8.8-5.8,14.7-14.4,14.7  C175.6,45.8,169.8,39.9,169.8,31.2 M195,31.2c0-6.8-4.4-11.3-10.8-11.3c-6.4,0-10.8,4.5-10.8,11.3c0,6.8,4.4,11.3,10.8,11.3  C190.6,42.5,195,38,195,31.2"/>
<polygon class="st1" points="204.7,17.2 208.5,17.2 223.6,37.6 225.3,40.1 225.3,37.6 225.3,17.2 228.7,17.2 228.7,45.2 224.9,45.2   209.7,24.7 208,22.3 208.1,24.6 208.1,45.2 204.7,45.2 "/>
<polygon class="st1" points="235.7,17.2 239.3,17.2 239.3,41.8 251.7,41.8 251.7,45.2 235.7,45.2 "/>
<rect x="256.6" y="17.2" class="st1" width="3.6" height="28"/>
<polygon class="st1" points="267.2,17.2 271,17.2 286.1,37.6 287.8,40.1 287.8,37.6 287.8,17.2 291.2,17.2 291.2,45.2 287.4,45.2   272.2,24.7 270.5,22.3 270.6,24.6 270.6,45.2 267.2,45.2 "/>
<polygon class="st1" points="298.2,17.2 313.6,17.2 313.6,20.5 301.8,20.5 301.8,29.3 313.1,29.3 313.1,32.7 301.8,32.7 301.8,41.8   314.1,41.8 314.1,45.2 298.2,45.2 "/>
</svg>